



{
"meteo_results" : [ 
    {
        "name" : "JAVA",
        "designed_by" : "James Gosling",
        "latest_release" : "JAVA 10",

        "paradigm" : {
            "object_oriented" : true
        },
        "description" : [ {
            "description_data" : "Java is a general-purpose computer-programming language that is concurrent, class-based, object-oriented, and specifically designed to have as few implementation dependencies as possible."
        } ]
    }










[
{"query":"basel","iso2":null,"currentPage":1,"itemsPerPage":10,
"pages":7,"count":64,"orderBy":"ranker DESC","lat":null,"lon":null,"radius":20,"type":"name",

"results":[{"name":"Basel","iso2":"CH","country":"Switzerland","admin1":"Canton of Basel-City",
"lat":47.558399,"lon":7.57327,"asl":279,"timezone":"Europe\/Zurich","population":164488,"distance":8598.53125,
"icao":"","iata":"EAP",
"postcodes":["4000","4001","4002","4003","4004","4005","4007","4008","4009","4010","4011","4012","4013","4015","4016","4017","4018","4019","4020","4023","4024","4025","4030","4031","4032","4033","4034","4035","4039","4040","4041","4042","4051","4052","4053","4054","4055","4056","4057","4058","4059","4065","4070","4075","4078","4080","4081","4082","4083","4084","4085","4086","4087","4088","4089","4091","4092","4093","4094","4095","4096","4105"],"featureClass":"P","featureCode":"PPLA","url":"basel_switzerland_2661604","id":2661604},
{"name":"Pratteln","iso2":"CH","country":"Switzerland","admin1":"Basel-Landschaft","lat":47.520699,"lon":7.69356,"asl":291,"timezone":"Europe\/Zurich","population":14877,"distance":8606.988281,"icao":"","iata":"","postcodes":["4133"],"featureClass":"P","featureCode":"PPL","url":"pratteln_switzerland_2659147","id":2659147},{"name":"Baselga di Pin\u00e8","iso2":"IT","country":"Italy","admin1":"Trentino-Alto Adige","lat":46.1325,"lon":11.2465,"asl":964,"timezone":"Europe\/Rome","population":2966,"distance":8881.007812,"icao":"","iata":"","postcodes":["38042"],"featureClass":"P","featureCode":"PPLA3","url":"baselga-di-pin%c3%a8_italy_3182313","id":3182313},{"name":"Baselice","iso2":"IT","country":"Italy","admin1":"Campania","lat":41.393002,"lon":14.9736,"asl":620,"timezone":"Europe\/Rome","population":1982,"distance":9486.936523,"icao":"","iata":"","postcodes":["82020"],"featureClass":"P","featureCode":"PPLA3","url":"baselice_italy_3182311","id":3182311},{"name":"Aesch","iso2":"CH","country":"Switzerland","admin1":"Basel-Landschaft","lat":47.471001,"lon":7.5973,"asl":307,"timezone":"Europe\/Zurich","population":10138,"distance":8607.666992,"icao":"","iata":"","postcodes":["4147"],"featureClass":"P","featureCode":"PPL","url":"aesch_switzerland_2661852","id":2661852},{"name":"Oberdorf","iso2":"CH","country":"Switzerland","admin1":"Basel-Landschaft","lat":47.393501,"lon":7.75169,"asl":503,"timezone":"Europe\/Zurich","population":2248,"distance":8621.223633,"icao":"","iata":"","postcodes":["4436"],"featureClass":"P","featureCode":"PPL","url":"oberdorf_switzerland_2659399","id":2659399},{"name":"Oliana","iso2":"ES","country":"Spain","admin1":"Catalonia","lat":42.069,"lon":1.31353,"asl":460,"timezone":"Europe\/Madrid","population":1866,"distance":8818.604492,"icao":"","iata":"","postcodes":["25289","25792","25790"],"featureClass":"P","featureCode":"PPL","url":"oliana_spain_3115170","id":3115170},{"name":"Basel","iso2":"DE","country":"Germany","admin1":"North Rhine-Westphalia","lat":51.755901,"lon":8.22049,"asl":110,"timezone":"Europe\/Berlin","population":0,"distance":8233.97168,"icao":"","iata":"","postcodes":[""],"featureClass":"P","featureCode":"PPLL","url":"basel_germany_2952290","id":2952290},{"name":"Sainte-Bazeille","iso2":"FR","country":"France","admin1":"Nouvelle-Aquitaine","lat":44.530701,"lon":0.0974,"asl":27,"timezone":"Europe\/Paris","population":2885,"distance":8540.380859,"icao":"","iata":"","postcodes":["47180"],"featureClass":"P","featureCode":"PPL","url":"sainte-bazeille_france_2980742","id":2980742},{"name":"Augst","iso2":"CH","country":"Switzerland","admin1":"Basel-Landschaft","lat":47.535599,"lon":7.71468,"asl":269,"timezone":"Europe\/Zurich","population":908,"distance":8606.464844,"icao":"","iata":"","postcodes":["4302"],"featureClass":"P","featureCode":"PPL","url":"augst_switzerland_2661681","id":2661681}]}
]
